\relax 
\bibstyle{biblatex}
\bibdata{example-blx,thesis}
\citation{biblatex-control}
\abx@aux@refcontext{none/global//global/global}
\@writefile{toc}{\boolfalse {citerequest}\boolfalse {citetracker}\boolfalse {pagetracker}\boolfalse {backtracker}\relax }
\@writefile{lof}{\boolfalse {citerequest}\boolfalse {citetracker}\boolfalse {pagetracker}\boolfalse {backtracker}\relax }
\@writefile{lot}{\boolfalse {citerequest}\boolfalse {citetracker}\boolfalse {pagetracker}\boolfalse {backtracker}\relax }
\@writefile{toc}{\defcounter {refsection}{0}\relax }\@writefile{toc}{\contentsline {chapter}{Abstract}{iii}\protected@file@percent }
\@writefile{toc}{\defcounter {refsection}{0}\relax }\@writefile{toc}{\contentsline {chapter}{\normalsize  {LIST OF TABLES}}{vi}\protected@file@percent }
\@writefile{toc}{\defcounter {refsection}{0}\relax }\@writefile{toc}{\contentsline {chapter}{\normalsize  {LIST OF FIGURES}}{vii}\protected@file@percent }
\@writefile{toc}{\defcounter {refsection}{0}\relax }\@writefile{toc}{\contentsline {chapter}{Abbreviations}{viii}\protected@file@percent }
\@writefile{toc}{\defcounter {refsection}{0}\relax }\@writefile{toc}{\contentsline {chapter}{\numberline {1}In the Beginning}{1}\protected@file@percent }
\@writefile{lof}{\defcounter {refsection}{0}\relax }\@writefile{lof}{\addvspace {10\p@ }}
\@writefile{lot}{\defcounter {refsection}{0}\relax }\@writefile{lot}{\addvspace {10\p@ }}
\@writefile{toc}{\defcounter {refsection}{0}\relax }\@writefile{toc}{\contentsline {section}{\numberline {1.1}Test}{1}\protected@file@percent }
\@writefile{toc}{\defcounter {refsection}{0}\relax }\@writefile{toc}{\contentsline {subsection}{\numberline {1.1.1}Test again but this time it's goint to be really long so that the toc better handle it correctly.}{2}\protected@file@percent }
\@writefile{toc}{\defcounter {refsection}{0}\relax }\@writefile{toc}{\contentsline {chapter}{\numberline {2}On the 7th Day}{4}\protected@file@percent }
\@writefile{lof}{\defcounter {refsection}{0}\relax }\@writefile{lof}{\addvspace {10\p@ }}
\@writefile{lot}{\defcounter {refsection}{0}\relax }\@writefile{lot}{\addvspace {10\p@ }}
\@writefile{lot}{\defcounter {refsection}{0}\relax }\@writefile{lot}{\contentsline {table}{\numberline {2.1}{\ignorespaces  A table of tabular goodness.}}{5}\protected@file@percent }
\newlabel{tab:magic}{{2.1}{5}}
\@writefile{lof}{\defcounter {refsection}{0}\relax }\@writefile{lof}{\contentsline {figure}{\numberline {2.1}{\ignorespaces  This is a stomata}}{6}\protected@file@percent }
\newlabel{table:fun}{{2.1}{6}}
\@writefile{toc}{\defcounter {refsection}{0}\relax }\@writefile{toc}{\contentsline {section}{\numberline {2.1}What will happen?}{8}\protected@file@percent }
\citation{ref:A}
\abx@aux@cite{ref:A}
\abx@aux@segm{0}{0}{ref:A}
\citation{ref:B}
\abx@aux@cite{ref:B}
\abx@aux@segm{0}{0}{ref:B}
\citation{ref:C}
\abx@aux@cite{ref:C}
\abx@aux@segm{0}{0}{ref:C}
\citation{ref:D}
\abx@aux@cite{ref:D}
\abx@aux@segm{0}{0}{ref:D}
\@writefile{toc}{\defcounter {refsection}{0}\relax }\@writefile{toc}{\let\chapappname\appendixname}
\@writefile{toc}{\defcounter {refsection}{0}\relax }\@writefile{toc}{\contentsline {chapter}{\numberline {A}First appendix}{11}\protected@file@percent }
\@writefile{lof}{\defcounter {refsection}{0}\relax }\@writefile{lof}{\addvspace {10\p@ }}
\@writefile{lot}{\defcounter {refsection}{0}\relax }\@writefile{lot}{\addvspace {10\p@ }}
\citation{ref:Wikipedia}
\abx@aux@cite{ref:Wikipedia}
\abx@aux@segm{0}{0}{ref:Wikipedia}
\@writefile{toc}{\defcounter {refsection}{0}\relax }\@writefile{toc}{\contentsline {chapter}{\numberline {B}Second appendix}{15}\protected@file@percent }
\@writefile{lof}{\defcounter {refsection}{0}\relax }\@writefile{lof}{\addvspace {10\p@ }}
\@writefile{lot}{\defcounter {refsection}{0}\relax }\@writefile{lot}{\addvspace {10\p@ }}
\abx@aux@refcontextdefaultsdone
\abx@aux@defaultrefcontext{0}{ref:A}{none/global//global/global}
\abx@aux@defaultrefcontext{0}{ref:B}{none/global//global/global}
\abx@aux@defaultrefcontext{0}{ref:C}{none/global//global/global}
\abx@aux@defaultrefcontext{0}{ref:D}{none/global//global/global}
\abx@aux@defaultrefcontext{0}{ref:Wikipedia}{none/global//global/global}
\abx@aux@defaultlabelprefix{0}{ref:A}{}
\abx@aux@defaultlabelprefix{0}{ref:B}{}
\abx@aux@defaultlabelprefix{0}{ref:C}{}
\abx@aux@defaultlabelprefix{0}{ref:D}{}
\abx@aux@defaultlabelprefix{0}{ref:Wikipedia}{}
\ttl@finishall
