\boolfalse {citerequest}\boolfalse {citetracker}\boolfalse {pagetracker}\boolfalse {backtracker}\relax 
\defcounter {refsection}{0}\relax 
\contentsline {chapter}{Abstract}{iii}% 
\defcounter {refsection}{0}\relax 
\contentsline {chapter}{\normalsize {LIST OF TABLES}}{vi}% 
\defcounter {refsection}{0}\relax 
\contentsline {chapter}{\normalsize {LIST OF FIGURES}}{vii}% 
\defcounter {refsection}{0}\relax 
\contentsline {chapter}{Abbreviations}{viii}% 
\defcounter {refsection}{0}\relax 
\contentsline {chapter}{\numberline {1}In the Beginning}{1}% 
\defcounter {refsection}{0}\relax 
\contentsline {section}{\numberline {1.1}Test}{1}% 
\defcounter {refsection}{0}\relax 
\contentsline {subsection}{\numberline {1.1.1}Test again but this time it's goint to be really long so that the toc better handle it correctly.}{2}% 
\defcounter {refsection}{0}\relax 
\contentsline {chapter}{\numberline {2}On the 7th Day}{4}% 
\defcounter {refsection}{0}\relax 
\contentsline {section}{\numberline {2.1}What will happen?}{8}% 
\defcounter {refsection}{0}\relax 
\let \chapappname \appendixname 
\defcounter {refsection}{0}\relax 
\contentsline {chapter}{\numberline {A}First appendix}{11}% 
\defcounter {refsection}{0}\relax 
\contentsline {chapter}{\numberline {B}Second appendix}{15}% 
\contentsfinish 
